Bayesian Linear Regression
…
library(readxl)
ledata <- read_excel("C:/Users/kayla/Downloads/Life-Expectancy-Data-Updated.xlsx", col_names = FALSE)
names(ledata) <- c("Country",   "Region",   "Year", "Infant_deaths",    "Under_five_deaths",    "Adult_mortality",  "Alcohol_consumption",  "Hepatitis_B",  "Measles",  "BMI",  "Polio",    "Diphtheria",   "Incidents_HIV",    "GDP_per_capita",   "Population_mln",   "Thinness_ten_nineteen_years",  "Thinness_five_nine_years", "Schooling",    "Economy_status_Developed", "Economy_status_Developing", "Life_expectancy")

revledata <- na.omit(ledata)

var <- c("Infant_deaths",   "Under_five_deaths",    "Adult_mortality",  "Alcohol_consumption",  "Hepatitis_B",  "Measles",  "BMI",  "Polio",    "Diphtheria",   "Incidents_HIV",    "GDP_per_capita",   "Population_mln",   "Thinness_ten_nineteen_years",  "Thinness_five_nine_years", "Schooling",    "Economy_status_Developed", "Economy_status_Developing", "Life_expectancy")

ndata1 <- revledata[, var]

cdata1 <- na.omit(ndata1)
print(cdata1)

# A tibble: 2,864 × 18
   Infant_deaths Under_five_deaths Adult_mortality Alcohol_consumption
           <dbl>             <dbl>           <dbl>               <dbl>
 1          11.1              13             106.                 1.32
 2           2.7               3.3            57.9               10.4 
 3          51.5              67.9           201.                 1.57
 4          32.8              40.5           222.                 5.68
 5           3.4               4.3            58.0                2.89
 6           9.8              11.2            95.2                4.19
 7           6.6               8.2           223                  8.06
 8           8.7              10.1           193.                12.2 
 9          22                26.1           130.                 0.52
10          15.3              17.8           218.                 7.72
# ℹ 2,854 more rows
# ℹ 14 more variables: Hepatitis_B <dbl>, Measles <dbl>, BMI <dbl>,
#   Polio <dbl>, Diphtheria <dbl>, Incidents_HIV <dbl>, GDP_per_capita <dbl>,
#   Population_mln <dbl>, Thinness_ten_nineteen_years <dbl>,
#   Thinness_five_nine_years <dbl>, Schooling <dbl>,
#   Economy_status_Developed <dbl>, Economy_status_Developing <dbl>,
#   Life_expectancy <dbl>
…
